vivado/project_2/project_2.sim/sim_1/behav/xsim/rf.vcd
$date
   Sat Dec 28 11:36:25 2024
$end
$version
  2019.2
$end
$timescale
  1ps
$end
$scope module tb_top $end
$scope module u_regfile $end
$var wire 1 ! clk $end
$var wire 5 " raddr1 [4:0] $end
$var wire 32 # rdata1 [31:0] $end
$var wire 5 $ raddr2 [4:0] $end
$var wire 32 % rdata2 [31:0] $end
$var wire 1 & we $end
$var wire 5 ' waddr [4:0] $end
$var wire 32 ( wdata [31:0] $end
$upscope $end
$upscope $end
$enddefinitions $end
#0
$dumpvars
1!
b0 "
b0 #
b0 $
b0 %
0&
b0 '
b0 (
$end
#5000
0!
#10000
1!
#15000
0!
#20000
1!
#25000
0!
#30000
1!
#31000
b1 "
bx #
b1 '
b11111111111111111111111111111111 (
#35000
0!
#40000
1!
#41000
1&
b10001000100011111111111111111 (
#45000
0!
#50000
1!
b10001000100011111111111111111 #
#51000
b10 "
bx #
b1 $
b10001000100011111111111111111 %
0&
#55000
0!
#60000
1!
#61000
b1 "
b10001000100011111111111111111 #
#65000
0!
#70000
1!
#75000
0!
#80000
1!
#85000
0!
#90000
1!
#95000
0!
#100000
1!
#105000
0!
#110000
1!
#115000
0!
#120000
1!
#125000
0!
#130000
1!
#135000
0!
#140000
1!
#145000
0!
#150000
1!
#155000
0!
#160000
1!
#165000
0!
#170000
1!
#175000
0!
#180000
1!
#185000
0!
#190000
1!
#195000
0!
#200000
1!
#205000
0!
#210000
1!
#215000
0!
#220000
1!
#225000
0!
#230000
1!
#235000
0!
#240000
1!
#245000
0!
#250000
1!
#255000
0!
#260000
1!
#265000
0!
#270000
1!
#271000
b10000 "
bx #
b1111 $
bx %
1&
b10000 '
b1111111111111111 (
#275000
0!
#280000
1!
b1111111111111111 #
#281000
b10001 "
bx #
b10000 $
b1111111111111111 %
b10001 '
b10001000100011111111111111111 (
#285000
0!
#290000
1!
b10001000100011111111111111111 #
#291000
b10010 "
bx #
b10001 $
b10001000100011111111111111111 %
b10010 '
b100010001000101111111111111111 (
#295000
0!
#300000
1!
b100010001000101111111111111111 #
#301000
b10011 "
bx #
b10010 $
b100010001000101111111111111111 %
b10011 '
b110011001100111111111111111111 (
#305000
0!
#310000
1!
b110011001100111111111111111111 #
#311000
b10100 "
bx #
b10011 $
b110011001100111111111111111111 %
b10100 '
b1000100010001001111111111111111 (
#315000
0!
#320000
1!
b1000100010001001111111111111111 #
#321000
b10101 "
bx #
b10100 $
b1000100010001001111111111111111 %
